[gd_scene load_steps=6 format=3 uid="uid://ddqf8si5ep32q"]

[ext_resource type="Script" path="res://menu.gd" id="1_sby3e"]
[ext_resource type="FontFile" uid="uid://komklo7ay5op" path="res://assets/MedievalSharp-Regular.ttf" id="2_e1yie"]
[ext_resource type="PackedScene" uid="uid://c6q85nnok873m" path="res://bg.tscn" id="2_sufsm"]
[ext_resource type="AudioStream" uid="uid://3obla50eb2ho" path="res://assets/music/medieval-fantasy-142837.mp3" id="4_ej3go"]
[ext_resource type="AudioStream" uid="uid://c2tovg6ol8lb8" path="res://assets/SFX/click-21156.mp3" id="5_8y4bf"]

[node name="Menu" type="Node2D"]
script = ExtResource("1_sby3e")

[node name="Play" type="Button" parent="."]
offset_left = 467.0
offset_top = 210.0
offset_right = 722.0
offset_bottom = 287.0
size_flags_horizontal = 4
theme_override_colors/font_color = Color(0.945098, 1, 0, 1)
theme_override_fonts/font = ExtResource("2_e1yie")
theme_override_font_sizes/font_size = 60
text = "Play"

[node name="Exit" type="Button" parent="."]
offset_left = 468.0
offset_top = 303.0
offset_right = 723.0
offset_bottom = 380.0
size_flags_horizontal = 4
theme_override_colors/font_color = Color(1, 0, 0, 1)
theme_override_fonts/font = ExtResource("2_e1yie")
theme_override_font_sizes/font_size = 60
text = "Exit"

[node name="BG" parent="." instance=ExtResource("2_sufsm")]

[node name="MenuMusic" type="AudioStreamPlayer2D" parent="."]
stream = ExtResource("4_ej3go")
volume_db = -25.0
autoplay = true

[node name="Buttons" type="AudioStreamPlayer" parent="."]
stream = ExtResource("5_8y4bf")

[connection signal="pressed" from="Play" to="." method="_on_play_pressed"]
[connection signal="pressed" from="Exit" to="." method="_on_exit_pressed"]
